…
    ## Rows: 11156 Columns: 135

    ## -- Column specification -------------------------------------------------------------------------------------------------------------------------------------
    ## Delimiter: ","
    ## chr (58): STRUCTURE_NUMBER_008, ROUTE_NUMBER_005D, HIGHWAY_DISTRICT_002, COU...
    ## dbl (72): STATE_CODE_001, RECORD_TYPE_005A, ROUTE_PREFIX_005B, SERVICE_LEVEL...
    ## lgl  (5): CRITICAL_FACILITY_006B, TEMP_STRUCTURE_103, REMARKS, SPECIAL_CODE,...

    ## 
    ## 
    ## i Use `spec()` to retrieve the full column specification for this data.
    ## i Specify the column types or set `show_col_types = FALSE` to quiet this message.

    ## # A tibble: 11,156 x 135
    ##    STATE_CODE_001 STRUCTURE_NUMBE~ RECORD_TYPE_005A ROUTE_PREFIX_00~
    ##             <dbl> <chr>                       <dbl>            <dbl>
    ##  1             26 000000000000007                 1                2
    ##  2             26 000000000000009                 1                4
    ##  3             26 000000000000010                 1                4
    ##  4             26 000000000000011                 1                4
    ##  5             26 000000000000012                 1                4
    ##  6             26 000000000000013                 1                4
    ##  7             26 000000000000014                 1                4
    ##  8             26 000000000000015                 1                4
    ##  9             26 000000000000016                 1                4
    ## 10             26 000000000000017                 1                4
    ## # ... with 11,146 more rows, and 131 more variables: SERVICE_LEVEL_005C <dbl>,
    ## #   ROUTE_NUMBER_005D <chr>, DIRECTION_005E <dbl>, HIGHWAY_DISTRICT_002 <chr>,
    ## #   COUNTY_CODE_003 <chr>, PLACE_CODE_004 <dbl>, FEATURES_DESC_006A <chr>,
    ## #   CRITICAL_FACILITY_006B <lgl>, FACILITY_CARRIED_007 <chr>,
    ## #   LOCATION_009 <chr>, MIN_VERT_CLR_010 <dbl>, KILOPOINT_011 <dbl>,
    ## #   BASE_HWY_NETWORK_012 <dbl>, LRS_INV_ROUTE_013A <chr>,
    ## #   SUBROUTE_NO_013B <dbl>, LAT_016 <dbl>, LONG_017 <chr>,
    ## #   DETOUR_KILOS_019 <dbl>, TOLL_020 <dbl>, MAINTENANCE_021 <chr>,
    ## #   OWNER_022 <chr>, FUNCTIONAL_CLASS_026 <chr>, YEAR_BUILT_027 <dbl>,
…
